{
  "project_info": {
    "project_number": "1025689884431",
    "firebase_url": "https://bookpark-app.firebaseio.com",
    "project_id": "bookpark-app",
    "storage_bucket": "bookpark-app.appspot.com"
  },
  "client": [
    {
      "client_info": {
        "mobilesdk_app_id": "1:1025689884431:android:b81f67ee64652dec",
        "android_client_info": {
          "package_name": "com.example.bookparkflutter"
        }
      },
      "oauth_client": [
        {
          "client_id": "1025689884431-d2u495j8iolt5tm0q92fuqmqsoicarv5.apps.googleusercontent.com",
          "client_type": 3
        }
      ],
      "api_key": [
        {
          "current_key": "AIzaSyDm1Tz7HBedhj5rCZ7o-SsQVrWV5iDtQlE"
        }
      ],
      "services": {
        "analytics_service": {
          "status": 1
        },
        "appinvite_service": {
          "status": 1,
          "other_platform_oauth_client": []
        },
        "ads_service": {
          "status": 2
        }
      }
    }
  ],
  "configuration_version": "1"
}